Appendix A — 前処理メニュー – RとMeCabによる日本語テキストマイニングの前処理
…
tbl <-
  readxl::read_xls("tutorial_jp/kokoro.xls",
    col_names = c("text", "section", "chapter", "label"),
    skip = 1
  ) |>
  dplyr::mutate(
    doc_id = dplyr::row_number(),
    dplyr::across(where(is.character), ~ audubon::strj_normalize(.))
  ) |>
  dplyr::filter(!gibasa::is_blank(text)) |>
  dplyr::relocate(doc_id, text, section, label, chapter)

tbl
#> # A tibble: 1,213 × 5
#>    doc_id text                                             section label chapter
#>     <int> <chr>                                            <chr>   <chr> <chr>  
#>  1      1 私はその人を常に先生と呼んでいた。だからここでもただ先生と書くだけで本名は打ち明けない。これは… [1]上_先… 上・一…… 1_01   
#>  2      2 私が先生と知り合いになったのは鎌倉である。その時私はまだ若々しい書生であった。暑中休暇を利用し… [1]上_先… 上・一…… 1_01   
#>  3      3 学校の授業が始まるにはまだ大分日数があるので鎌倉におってもよし、帰ってもよいという境遇にいた私… [1]上_先… 上・一…… 1_01   
#>  4      4 宿は鎌倉でも辺鄙な方角にあった。玉突きだのアイスクリームだのというハイカラなものには長い畷を一… [1]上_先… 上・一…… 1_01   
#>  5      5 私は毎日海へはいりに出掛けた。古い燻ぶり返った藁葺の間を通り抜けて磯へ下りると、この辺にこれほ… [1]上_先… 上・一…… 1_01   
#>  6      6 私は実に先生をこの雑沓の間に見付け出したのである。その時海岸には掛茶屋が二軒あった。私はふとし… [1]上_先… 上・一…… 1_01   
#>  7      7 私がその掛茶屋で先生を見た時は、先生がちょうど着物を脱いでこれから海へ入ろうとするところであっ… [1]上_先… 上・二…… 1_02   
#>  8      8 その西洋人の優れて白い皮膚の色が、掛茶屋へ入るや否や、すぐ私の注意を惹いた。純粋の日本の浴衣を… [1]上_先… 上・二…… 1_02   
#>  9      9 彼はやがて自分の傍を顧みて、そこにこごんでいる日本人に、一言二言何かいった。その日本人は砂の上… [1]上_先… 上・二…… 1_02   
#> 10     10 私は単に好奇心のために、並んで浜辺を下りて行く二人の後姿を見守っていた。すると彼らは真直に波の… [1]上_先… 上・二…… 1_02   
#> # ℹ 1,203 more rows
…
codes
#> # A tibble: 537 × 8
#>    doc_id section        label  token_id token    pos      original code      
#>     <int> <chr>          <chr>     <int> <chr>    <chr>    <chr>    <chr>     
#>  1      2 [1]上_先生と私 上・一       36 友達     名詞     友達     友情      
#>  2      2 [1]上_先生と私 上・一       96 友達     名詞     友達     友情      
#>  3      2 [1]上_先生と私 上・一      115 病気     サ変名詞 病気     病気      
#>  4      2 [1]上_先生と私 上・一      124 友達     名詞     友達     友情      
#>  5      2 [1]上_先生と私 上・一      128 信じ     動詞     信じる   信用・不信
#>  6      2 [1]上_先生と私 上・一      132 友達     名詞     友達     友情      
#>  7      2 [1]上_先生と私 上・一      240 病気     サ変名詞 病気     病気      
#>  8      3 [1]上_先生と私 上・一       44 友達     名詞     友達     友情      
#>  9     19 [1]上_先生と私 上・三      207 疑っ     動詞     疑う     信用・不信
#> 10     21 [1]上_先生と私 上・四      161 亡くなっ 動詞     亡くなる 人の死    
#> # ℹ 527 more rows
…
「エクスポート」メニューから得られるような抽出語リストをデータフレームとして得る例です。

Excel向けの出力は見やすいようにカラムを分けていますが、Rのデータフレームとして扱うならtidyな縦長のデータにしたほうがよいです。

A.5.1 品詞別・上位15語

dplyr::tbl(con, "tokens") |>
  dplyr::filter(
    !pos %in% c("その他", "名詞B", "動詞B", "形容詞B", "副詞B", "否定助動詞", "形容詞（非自立）")
  ) |>
  dplyr::mutate(token = dplyr::if_else(is.na(original), token, original)) |>
  dplyr::count(token, pos) |>
  dplyr::slice_max(n, n = 15, by = pos) |>
  dplyr::collect()
#> # A tibble: 232 × 3
#>    token pos       n
#>    <chr> <chr> <dbl>
#>  1 二人  タグ    115
#>  2 一人  タグ     73
#>  3 三人  タグ     10
#>  4 日蓮  人名     10
#>  5 乃木  人名      8
#>  6 寧    人名      6
#>  7 鄭    人名      6
#>  8 ちよ  人名      6
#>  9 房州  人名      5
#> 10 源    人名      5
#> # ℹ 222 more rows

A.5.2 頻出150語

dplyr::tbl(con, "tokens") |>
  dplyr::filter(
    !pos %in% c("その他", "名詞B", "動詞B", "形容詞B", "副詞B", "否定助動詞", "形容詞（非自立）")
  ) |>
  dplyr::mutate(token = dplyr::if_else(is.na(original), token, original)) |>
  dplyr::count(token, pos) |>
  dplyr::slice_max(n, n = 150) |>
  dplyr::collect()
#> # A tibble: 152 × 3
#>    token  pos        n
#>    <chr>  <chr>  <dbl>
#>  1 先生   名詞     595
#>  2 K      未知語   411
#>  3 奥さん 名詞     388
#>  4 思う   動詞     293
#>  5 父     名詞C    269
#>  6 自分   名詞     264
#>  7 見る   動詞     225
#>  8 聞く   動詞     218
#>  9 出る   動詞     179
#> 10 人     名詞C    176
#> # ℹ 142 more rows
…
embeddings
#> # A tibble: 10,578 × 103
#>    doc_id token  label      dim_1   dim_2   dim_3   dim_4   dim_5   dim_6  dim_7
#>     <int> <chr>  <chr>      <dbl>   <dbl>   <dbl>   <dbl>   <dbl>   <dbl>  <dbl>
#>  1      1 遠慮   遠慮/サ変名詞…  0.653  -0.404  -0.112  -0.242   0.114   0.155  0.0425
#>  2      2 勧     勧/人名   1.00   -0.378  -0.202   0.621   0.344  -1.16   0.444 
#>  3      2 工面   工面/サ変名詞…  0.87   -0.640  -0.308  -0.534  -0.351   0.582  0.300 
#>  4      2 暑中   暑中/名詞……  0.962   0.0949 -0.0537 -0.0839  0.0502 -0.568  0.952 
#>  5      2 金     金/名詞C  0.389  -0.466   0.103  -0.0886  0.261  -0.453  0.682 
#>  6      3 変り   変り/名詞…… -0.0866 -0.638   0.234   0.258  -0.0035 -0.183  0.259 
#>  7      4 行っ   行っ/動詞……  0.428   0.0491  0.158   0.505  -0.436   0.123  0.460 
#>  8      5 燻     燻/名詞C  0.231  -0.448   0.449   0.158  -0.0838 -0.798  0.818 
#>  9      6 見付け 見付け/動詞……  0.888  -0.274  -0.0161  0.0271  0.264   0.0593 0.428 
#> 10     10 広々   広々/副詞……  0.136  -0.0064  0.673   0.406   0.350   0.438  0.496 
#> # ℹ 10,568 more rows
#> # ℹ 93 more variables: dim_8 <dbl>, dim_9 <dbl>, dim_10 <dbl>, dim_11 <dbl>,
#> #   dim_12 <dbl>, dim_13 <dbl>, dim_14 <dbl>, dim_15 <dbl>, dim_16 <dbl>,
#> #   dim_17 <dbl>, dim_18 <dbl>, dim_19 <dbl>, dim_20 <dbl>, dim_21 <dbl>,
#> #   dim_22 <dbl>, dim_23 <dbl>, dim_24 <dbl>, dim_25 <dbl>, dim_26 <dbl>,
#> #   dim_27 <dbl>, dim_28 <dbl>, dim_29 <dbl>, dim_30 <dbl>, dim_31 <dbl>,
#> #   dim_32 <dbl>, dim_33 <dbl>, dim_34 <dbl>, dim_35 <dbl>, dim_36 <dbl>, …
…
