Appendix D — 抽出語メニュー3 – RとMeCabによる日本語テキストマイニングの前処理
…
has_coocurrences
#> # A tibble: 2,164 × 3
#>    from          to       doc_id
#>    <chr>         <chr>     <int>
#>  1 お嬢さん/名詞 K/未知語   1034
#>  2 お嬢さん/名詞 K/未知語   1035
#>  3 お嬢さん/名詞 K/未知語   1041
#>  4 お嬢さん/名詞 K/未知語   1042
#>  5 お嬢さん/名詞 K/未知語   1045
#>  6 お嬢さん/名詞 K/未知語   1046
#>  7 お嬢さん/名詞 K/未知語   1048
#>  8 お嬢さん/名詞 K/未知語   1049
#>  9 お嬢さん/名詞 K/未知語   1052
#> 10 お嬢さん/名詞 K/未知語   1054
#> # ℹ 2,154 more rows
…
correlations
#> # A tibble: 82 × 3
#>     from    to     cor
#>    <int> <int>   <dbl>
#>  1    44    46  0.292 
#>  2    44    45  0.139 
#>  3     3    25  0.104 
#>  4     3    30  0.0467
#>  5     3    10  0.145 
#>  6     5    46  0.246 
#>  7     5    44  0.199 
#>  8    29    44  0.158 
#>  9    29    36  0.104 
#> 10     1    17 -0.176 
#> # ℹ 72 more rows
…
