Appendix B — 抽出語メニュー1 – RとMeCabによる日本語テキストマイニングの前処理
…
dat
#> # A tibble: 98 × 5
#>        n degree   prop cum_degree cum_prop
#>    <dbl>  <dbl>  <dbl>      <dbl>    <dbl>
#>  1     1   2938 0.111        2938    0.111
#>  2     2   1934 0.0729       4872    0.184
#>  3     3   1506 0.0568       6378    0.240
#>  4     4   1248 0.0470       7626    0.287
#>  5     5    955 0.0360       8581    0.323
#>  6     6    768 0.0289       9349    0.352
#>  7     7    868 0.0327      10217    0.385
#>  8     8    592 0.0223      10809    0.407
#>  9     9    531 0.0200      11340    0.427
#> 10    10    570 0.0215      11910    0.449
#> # ℹ 88 more rows
…
B.3.1 ヒストグラム🍳

段落（doc_id）ではなく、章ラベル（label）でグルーピングして集計しています。docfreqについて上でやったのと同様に処理すれば度数分布表にできます。

dat <-
  dplyr::tbl(con, "tokens") |>
  dplyr::mutate(token = paste(token, pos, sep = "/")) |>
  dplyr::count(label, token) |>
  dplyr::collect() |>
  tidytext::cast_dfm(label, token, n) |>
  quanteda.textstats::textstat_frequency() |>
  dplyr::as_tibble()

dat
#> # A tibble: 7,140 × 5
#>    feature   frequency  rank docfreq group
#>    <chr>         <dbl> <dbl>   <dbl> <chr>
#>  1 の/その他      5801     1     110 all  
#>  2 た/その他      5396     2     110 all  
#>  3 。/その他      4648     3     110 all  
#>  4 は/その他      4148     4     110 all  
#>  5 に/その他      4104     5     110 all  
#>  6 、/その他      3646     6     110 all  
#>  7 て/その他      3403     7     110 all  
#>  8 を/その他      3216     8     110 all  
#>  9 私/その他      2694     9     110 all  
#> 10 が/その他      2194    10     110 all  
#> # ℹ 7,130 more rows
…
なお、上の例ではひらがな1～2文字の語をpaddingしつつ除外したので、一部の助詞などは表示されていません（それぞれの窓のなかでトークンとして数えられてはいます）。

B.5.2 コロケーション

たとえば、前後5個のwindow内のコロケーション（nodeを含めて11語の窓ということ）の合計については次のように確認できます。

dat |>
  quanteda::fcm(context = "window", window = 5) |>
  tidytext::tidy() |>
  dplyr::rename(node = document, term = term) |>
  dplyr::filter(node == "向い") |>
  dplyr::slice_max(count, n = 10)
#> # A tibble: 30 × 3
#>    node  term     count
#>    <chr> <chr>    <dbl>
#>  1 向い  庭           4
#>  2 向い  奥さん       2
#>  3 向い  立っ         1
#>  4 向い  眼           1
#>  5 向い  やがて       1
#>  6 向い  沖           1
#>  7 向い  それから     1
#>  8 向い  引き返し     1
#>  9 向い  烟草         1
#> 10 向い  しかし       1
#> # ℹ 20 more rows
「左合計」や「右合計」については、たとえば次のようにして確認できます。paddingしなければtidyr::separate_wider_delim()で展開して位置ごとに集計することもできそうです。

dat |>
  quanteda::kwic(pattern = "^向[いくけこ]$", window = 5, valuetype = "regex") |>
  dplyr::as_tibble() |>
  dplyr::select(docname, keyword, pre, post) |>
  tidyr::pivot_longer(
    c(pre, post),
    names_to = "window",
    values_to = "term",
    values_transform = ~ strsplit(., " ", fixed = TRUE)
  ) |>
  tidyr::unnest(term) |>
  dplyr::count(window, term, sort = TRUE)
#> # A tibble: 57 × 3
#>    window term           n
#>    <chr>  <chr>      <int>
#>  1 post   ""            17
#>  2 pre    ""            14
#>  3 pre    "方"           9
#>  4 post   "私"           3
#>  5 pre    "庭"           3
#>  6 pre    "私"           3
#>  7 post   "それから"     2
#>  8 pre    "奥さん"       2
#>  9 post   "お前"         1
#> 10 post   "この間"       1
#> # ℹ 47 more rows
…
