Chapter 4 単語頻度の重みづけ | RとMeCabによる日本語テキストマイニングの前処理
…
require(dplyr)

dat |>
  gibasa::prettify(col_select = c("POS1", "Original")) |>
  dplyr::filter(POS1 %in% c("名詞", "動詞", "形容詞")) |>
  dplyr::mutate(
    doc_id = forcats::fct_drop(doc_id),
    token = dplyr::if_else(is.na(Original), token, Original)
  ) |>
  udpipe::document_term_frequencies(document = "doc_id", term = "token") |>
  udpipe::document_term_frequencies_statistics(k = 2.0) |>
  dplyr::slice_max(bm25, n = 5L)

## Source: local data table [7 x 8]
## Call:   `_DT8`[rank(desc(bm25), ties.method = "min", na.last = "keep") <= 
##     min(5L, .N)][order(-bm25)]
## 
##   doc_id term      freq    tf   idf tf_idf tf_bm25  bm25
##   <fct>  <chr>    <int> <dbl> <dbl>  <dbl>   <dbl> <dbl>
## 1 698    誤解         2 0.333  6.78   2.26    1.86  12.6
## 2 139    去年         1 1      6.78   6.78    1.85  12.5
## 3 880    ざあい       1 1      6.78   6.78    1.85  12.5
## 4 87     お父さん     1 0.5    6.78   3.39    1.72  11.7
## 5 89     兄さん       1 0.5    6.78   3.39    1.72  11.7
## 6 536    起訴         1 0.5    6.78   3.39    1.72  11.7
## # … with 1 more row
## 
## # Use as.data.table()/as.data.frame()/as_tibble() to access results
…
